-------------------------------------------------------------------------------
Test set: com.example.demo.TimesheetApplicationTests
-------------------------------------------------------------------------------
Tests run: 1, Failures: 0, Errors: 0, Skipped: 0, Time elapsed: 7.229 sec - in com.example.demo.TimesheetApplicationTests
